[ {
  "uid" : "d20a06712bbedcda",
  "name" : "Buscar un centro cercano",
  "time" : {
    "start" : 1579597267892,
    "stop" : 1579597324037,
    "duration" : 56145
  },
  "status" : "broken",
  "severity" : "normal"
}, {
  "uid" : "2e7cfd38c728433b",
  "name" : "Login con usuario y contraseña correctos",
  "time" : {
    "start" : 1579597209784,
    "stop" : 1579597222441,
    "duration" : 12657
  },
  "status" : "passed",
  "severity" : "normal"
}, {
  "uid" : "2076b7307f47f333",
  "name" : "Login con datos incorrectos",
  "time" : {
    "start" : 1579597236872,
    "stop" : 1579597252282,
    "duration" : 15410
  },
  "status" : "failed",
  "severity" : "critical"
} ]