{
  "uid" : "83edc06c07f9ae9e47eb6dd1b683e4e2",
  "name" : "packages",
  "children" : [ {
    "name" : "tests",
    "children" : [ {
      "name" : "LoginCorrectoTest",
      "children" : [ {
        "name" : "accesoLogin",
        "uid" : "2e7cfd38c728433b",
        "parentUid" : "5dd6c078625b3b71eee166b71a543691",
        "status" : "passed",
        "time" : {
          "start" : 1579597209784,
          "stop" : 1579597222441,
          "duration" : 12657
        },
        "flaky" : false,
        "newFailed" : false,
        "parameters" : [ "android" ]
      } ],
      "uid" : "5dd6c078625b3b71eee166b71a543691"
    }, {
      "name" : "LoginIncorrectoTest",
      "children" : [ {
        "name" : "accesoLogin",
        "uid" : "2076b7307f47f333",
        "parentUid" : "0266d805073f53f18f76dbe346c09e1b",
        "status" : "failed",
        "time" : {
          "start" : 1579597236872,
          "stop" : 1579597252282,
          "duration" : 15410
        },
        "flaky" : false,
        "newFailed" : false,
        "parameters" : [ "android" ]
      } ],
      "uid" : "0266d805073f53f18f76dbe346c09e1b"
    }, {
      "name" : "BuscarCentroCercanoTest",
      "children" : [ {
        "name" : "BucarCentro",
        "uid" : "d20a06712bbedcda",
        "parentUid" : "bbbc2dfba02995a0ddeaa1c1ba1b4472",
        "status" : "broken",
        "time" : {
          "start" : 1579597267892,
          "stop" : 1579597324037,
          "duration" : 56145
        },
        "flaky" : false,
        "newFailed" : false,
        "parameters" : [ "android" ]
      } ],
      "uid" : "bbbc2dfba02995a0ddeaa1c1ba1b4472"
    } ],
    "uid" : "bf49149a3821e34f7608bb6885d52868"
  } ]
}